Exploratory Data Analysis
…
  group_by( COUNTY) %>%

  summarize(

    Mean_PM2.5 = mean(PM2.5_Conc, na.rm = TRUE),

    Median_PM2.5 = median(PM2.5_Conc, na.rm = TRUE),

    Max_PM2.5 = max(PM2.5_Conc, na.rm = TRUE),

    Min_PM2.5 = min(PM2.5_Conc, na.rm = TRUE) )

county_summary_2002

# A tibble: 48 × 5
   COUNTY       Mean_PM2.5 Median_PM2.5 Max_PM2.5 Min_PM2.5
   <chr>             <dbl>        <dbl>     <dbl>     <dbl>
 1 Alameda           14.3         10         61.6       1.9
 2 Butte             14.8         11.5       88         1  
 3 Calaveras          9.9          8         40         2  
 4 Colusa            11.7          9         57         1  
 5 Contra Costa      15.1          9.5       76.7       2  
 6 Del Norte          3.82         3.45      12.3       0  
 7 El Dorado          4.91         3.95      27         0.1
 8 Fresno            19.9         13.0       92.5       0.1
 9 Humboldt           7.79         6.8       23.7       1.9
10 Imperial          12.7         11.1       46.5       1.1
# ℹ 38 more rows
…
  group_by( COUNTY) %>%

  summarize(

    Mean_PM2.5 = mean(PM2.5_Conc, na.rm = TRUE),

    Median_PM2.5 = median(PM2.5_Conc, na.rm = TRUE),

    Max_PM2.5 = max(PM2.5_Conc, na.rm = TRUE),

    Min_PM2.5 = min(PM2.5_Conc, na.rm = TRUE))

county_summary_2022

# A tibble: 50 × 5
   COUNTY       Mean_PM2.5 Median_PM2.5 Max_PM2.5 Min_PM2.5
   <chr>             <dbl>        <dbl>     <dbl>     <dbl>
 1 Alameda            8.20          7        35.5      -0.7
 2 Butte              6.17          4.5      42.8      -0.6
 3 Calaveras          6.04          5        25.9       0  
 4 Colusa             7.61          6.7      37         0.6
 5 Contra Costa       8.22          7.2      37.3       0.3
 6 Del Norte          4.97          4.2      21.2      -0.8
 7 El Dorado          4.07          2.7     105         0.2
 8 Fresno            10.2           7.7      55.8      -0.3
 9 Glenn              5.34          4.4      36.7      -1.3
10 Humboldt           6.76          5.7      21.2       0.9
# ℹ 40 more rows
…
